{
	"id": "8bb24c9a-18ea-4c30-8c7e-89ae288cf755",
	"name": "my-cart",
	"values": [
		{
			"key": "mySqlhost",
			"value": "http://localhost:9000",
			"enabled": true
		},
		{
			"key": "apiUriV1",
			"value": "api/v1",
			"enabled": true
		},
		{
			"key": "request-body",
			"value": "{\"id\":\"5ef0f9f3d9cf825da8ce9fd8\",\"shippingAddress\":\"address 1 - update 1\",\"itemModelList\":[{\"quantity\":100},{\"quantity\":100}],\"personModel\":{\"id\":\"5ef0f9d5d9cf825da8ce9fd7\"}}",
			"enabled": true
		},
		{
			"key": "mongoHost",
			"value": "http://localhost:9001",
			"enabled": true
		}
	],
	"_postman_variable_scope": "environment",
	"_postman_exported_at": "2020-06-22T19:39:09.529Z",
	"_postman_exported_using": "Postman/7.27.0-canary07"
}